[
	{
		"title": "Tile settings",
		"options": [
			{
				"title": "Value",
				"prop": "value",
				"control": "Currency"
			},
			{
				"title": "Product code / SKU",
				"prop": "sku",
				"control": "Text"
			},
			{
				"title": "Hide this tile",
				"prop": "hidden",
				"control": "Toggle"
			},
			{
				"title": "Auto-fill this value when clicked",
				"prop": "autofill",
				"control": "Text"
			},
			{
				"title": "Show/hide conditionally",
				"prop": "conditional_show_hide_enabled",
				"control": "Toggle",
				"children": [
					{
						"title": "Lookup field name",
						"prop": "conditional_show_hide_field",
						"control": "Text"
					},
					{
						"title": "Hide if value matches",
						"prop": "conditional_show_hide_value",
						"control": "Text"
					},
					{
						"title": "Hide if value doesn't match",
						"prop": "conditional_show_hide_value_inverse",
						"control": "Text"
					}
				]
			}
		]
	}
]
